Bertrand Wilden - SD - STRO
…
My goal is to create a choropleth map of San Diego with regions shaded according to their proportion of STROs. The packages {dplyr} and {ggplot2} are for some light data manipulation and producing the graphs. Inspired by Michael DeCrescenzo’s posts on functional programming in R, I use {purrr} for some currying and composition later in this post. {tidycensus} is the best way to access US Census data in my opinion. And {sf} and {tigris} are my two favorite GIS packages in R.

Now let’s take a look at the data.

stro <- readr::read_csv("https://seshat.datasd.org/stro_licenses/stro_licenses_datasd.csv")
stro

# A tibble: 7,816 × 23
   license_id address      street_number street_number_fraction street_direction
   <chr>      <chr>                <dbl> <chr>                  <chr>           
 1 STR-00001L 3119 Keats …          3119 <NA>                   <NA>            
 2 STR-00008L 2026 BALBOA…          2026 <NA>                   <NA>            
 3 STR-00012L 4922 Lamont…          4922 <NA>                   <NA>            
 4 STR-00014L 412 Los Ala…           412 <NA>                   <NA>            
 5 STR-00017L 3353 Fox Pl…          3353 <NA>                   <NA>            
 6 STR-00026L 2525 E St, …          2525 <NA>                   <NA>            
 7 STR-00035L 3670 KEATIN…          3670 <NA>                   <NA>            
 8 STR-00037L 6300 Scimit…          6300 <NA>                   <NA>            
 9 STR-00046L 4039 Lamont…          4039 <NA>                   <NA>            
10 STR-00049L 4445 Narrag…          4445 <NA>                   <NA>            
# ℹ 7,806 more rows
# ℹ 18 more variables: street_name <chr>, street_type <chr>, unit_type <chr>,
#   unit_number <chr>, city <chr>, state <chr>, zip <dbl>, tier <chr>,
#   community_planning_area <chr>, date_expiration <date>, rtax_no <chr>,
#   tot_no <dbl>, longitude <dbl>, latitude <dbl>,
#   local_contact_contact_name <chr>, local_contact_phone <dbl>,
#   host_contact_name <chr>, council_district <dbl>
…
